{  
   "isc":{  
      "score":"63.83",
      "trend":{  
         "me":[  
            "55",
            "63",
            "1",
            "74",
            "63.83",
            "63.83",
            "63.83",
            "63.83",
            "63.83",
            "63.83",
            "63.83"
         ],
         "company":[  
            "28",
            "73",
            "42",
            "28",
            "78"
         ]
      },
      "trendLabels":[  
         "nov-16",
         "dec-16",
         "jan-17",
         "fev-17",
         "mar-17"
      ]
   },
   "pro":{  
      "score":"18.02",
      "trend":{  
         "me":[  
            "46",
            "44",
            "18.02",
            "18.02",
            "18.02",
            "18.02",
            "18.02",
            "18.02",
            "18.02"
         ],
         "company":[  
            "90",
            "96",
            "44"
         ]
      },
      "trendLabels":[  
         "jan-17",
         "fev-17",
         "mar-17"
      ]
   },
   "banque":{  
      "score":"43.22",
      "trend":{  
         "me":[  
            "76",
            "90",
            "43.22",
            "43.22",
            "43.22",
            "43.22",
            "43.22",
            "43.22",
            "43.22"
         ],
         "company":[  
            "86",
            "61",
            "41"
         ]
      },
      "trendLabels":[  
         "jan-17",
         "fev-17",
         "mar-17"
      ],
      "expanded":{  
         "data":[  
            "44",
            "14",
            "7"
         ],
         "colors":[  
            "#fecb00",
            "#333",
            "#fff"
         ],
         "categories":[  
            "Satisfait",
            "Non satisfait",
            "Netrual"
         ],
         "datePercent":[  
            "67.7%",
            "21.5%",
            "10.8%"
         ]
      }
   },
   "financier":{  
      "nps":"87.93",
      "score":"73"
   },
   "comments":[  
      {  
         "client":"Catherine DE MEDECI",
         "date":"15/02/2017",
         "comment":"Lorem ipsum. Bayang magiliw perlas ng silanganan. Alab ng puso 'di ka pasisiil. Sa dagat at bundok sa simoy at sa lingit mong bughaw. Aming ligaya na 'pag may mang-aapi."
      },
      {  
         "client":"Marie DE GUISE",
         "date":"16/02/2017",
         "comment":"Lorem ipsum. Dalaga binata may asawa byuda. Itim puti pula asul kayumangi dilaw. Lintik lang ang walang ganti. Pikachu use thunderbolt."
      },
      {  
         "client":"Jean BAPTISTE",
         "date":"16/02/2017",
         "comment":"Lorem ipsum. Sit dolor amet. Run rabbit, run. If you the think the work is done it's time to dig another one. Breath, breath into the air."
      }
   ],
   "recontact":"60",
   "clients-professionnels":{  
      "title":"Client professionnels",
      "kpis":[  
         {  
            "signature":"Personnaliser la relation avec les clients Pros",
            "iscfocus":"iscfocus",
            "questions":[  
               {  
                  "code":"q19",
                  "title":"Recommandation"
               },
               {  
                  "code":"q8",
                  "title":"Satisfaction globale"
               }
            ]
         },
         {  
            "signature":"1. Les 30 premières secondes",
            "questions":[  
               {  
                  "code":"q10",
                  "title":"Accueil"
               }
            ]
         },
         {  
            "signature":"2. Servir les clients dans les meilleurs délai",
            "questions":[  
               {  
                  "code":"q13",
                  "title":"Attente "
               }
            ]
         },
         {  
            "signature":"3. Etre encore plus attentifs à nos clients bancaires",
            "questions":[  
               {  
                  "code":"q6",
                  "title":"Offres bancaires"
               }
            ]
         },
         {  
            "signature":"4. Personnaliser la relation avec les clients Pros",
            "questions":[  
               {  
                  "code":"q4",
                  "title":"Conseillers Pro"
               },
               {  
                  "code":"q15",
                  "title":"Guichet Pro"
               },
               {  
                  "code":"q16",
                  "title":"Carte Pro"
               },
               {  
                  "code":"q17",
                  "title":"Conseil"
               },
               {  
                  "code":"q18",
                  "title":"Suivi"
               },
               {  
                  "code":"q7",
                  "title":"Services"
               }
            ]
         },
         {  
            "signature":"5. Etre présents à chaque instant",
            "questions":[  
               {  
                  "code":"q11",
                  "title":"Ecoute"
               },
               {  
                  "code":"q12",
                  "title":"Sens du service"
               }
            ]
         },
         {  
            "signature":"6. Proches, accessibles et connectés",
            "questions":[  
               {  
                  "code":"q14",
                  "title":"Automates"
               },
               {  
                  "code":"q5",
                  "title":"Offres en ligne"
               }
            ]
         },
         {  
            "signature":"7. L'avis des nos clients nous importe",
            "questions":[  
               {  
                  "code":"q22",
                  "title":"Recontact"
               },
               {  
                  "code":"q23",
                  "title":"Recontact"
               }
            ]
         }
      ]
   },
   "banque-postale":{  
      "title":"La Banque Postale",
      "kpis":[  
         {  
            "signature":"Etre encore plus attentifs à nos clients bancaires",
            "iscfocus":"iscfocus",
            "questions":[  
               {  
                  "code":"q20",
                  "title":"Recommandation"
               },
               {  
                  "code":"q6",
                  "title":"Satisfaction globale"
               }
            ]
         },
         {  
            "signature":"1. Les 30 premières secondes",
            "questions":[  
               {  
                  "code":"q11",
                  "title":"Bureau"
               },
               {  
                  "code":"q13",
                  "title":"Accueil"
               },
               {  
                  "code":"q2",
                  "title":"Satisfaction bureau"
               }
            ]
         },
         {  
            "signature":"2. Servir les clients dans les meilleurs délai",
            "questions":[  
               {  
                  "code":"q12",
                  "title":"Pontualité"
               },
               {  
                  "code":"q8",
                  "title":"Joignabilité"
               },
               {  
                  "code":"q9",
                  "title":"Disponibilité"
               }
            ]
         },
         {  
            "signature":"3. Etre encore plus attentifs à nos clients bancaires",
            "questions":[  
               {  
                  "code":"q16",
                  "title":"Aboutissement"
               },
               {  
                  "code":"q20-1",
                  "title":"Recommandation"
               },
               {  
                  "code":"q22",
                  "title":"Fidélisation"
               },
               {  
                  "code":"q23",
                  "title":"Intention client"
               }
            ]
         },
         {  
            "signature":"5. Etre présents à a chaque instant",
            "questions":[  
               {  
                  "code":"q14",
                  "title":"Ecoute"
               },
               {  
                  "code":"q15",
                  "title":"Conseil"
               },
               {  
                  "code":"q17",
                  "title":"Suivi"
               }
            ]
         },
         {  
            "signature":"6. Proches, accessibles connectés",
            "questions":[  
               {  
                  "code":"q10",
                  "title":"Gestion des absences"
               }
            ]
         },
         {  
            "signature":"7. L'avis des nos client nous importe",
            "questions":[  
               {  
                  "code":"q24",
                  "title":"Recontact"
               },
               {  
                  "code":"q25",
                  "title":"Recontact"
               }
            ]
         }
      ]
   }
}